\relax 
\providecommand\hyper@newdestlabel[2]{}
\providecommand\HyperFirstAtBeginDocument{\AtBeginDocument}
\HyperFirstAtBeginDocument{\ifx\hyper@anchor\@undefined
\global\let\oldcontentsline\contentsline
\gdef\contentsline#1#2#3#4{\oldcontentsline{#1}{#2}{#3}}
\global\let\oldnewlabel\newlabel
\gdef\newlabel#1#2{\newlabelxx{#1}#2}
\gdef\newlabelxx#1#2#3#4#5#6{\oldnewlabel{#1}{{#2}{#3}}}
\AtEndDocument{\ifx\hyper@anchor\@undefined
\let\contentsline\oldcontentsline
\let\newlabel\oldnewlabel
\fi}
\fi}
\global\let\hyper@last\relax 
\gdef\HyperFirstAtBeginDocument#1{#1}
\providecommand\HyField@AuxAddToFields[1]{}
\providecommand\HyField@AuxAddToCoFields[2]{}
\citation{CoelloFsSelfAdaptive2,Fs27,CoelloFsSelfAdaptive1,Hue4}
\citation{glover2003handbook}
\@writefile{toc}{\contentsline {section}{\numberline {1}Introduction}{1}{section.1}}
\@writefile{toc}{\contentsline {subsection}{\numberline {1.1}Search Group Algorithm}{1}{subsection.1.1}}
\@writefile{toc}{\contentsline {subsection}{\numberline {1.2}Gray Wolf Optimizer}{1}{subsection.1.2}}
\citation{KrolingG1G7G9G10PSO}
\citation{KrolingG1G7G9G10PSO}
\@writefile{toc}{\contentsline {section}{\numberline {2}Benchmark Constrained Functions}{2}{section.2}}
\@writefile{toc}{\contentsline {subsection}{\numberline {2.1}Function G1}{2}{subsection.2.1}}
\@writefile{toc}{\contentsline {subsection}{\numberline {2.2}Function G2}{2}{subsection.2.2}}
\@writefile{toc}{\contentsline {subsection}{\numberline {2.3}Function G3}{2}{subsection.2.3}}
\@writefile{toc}{\contentsline {subsection}{\numberline {2.4}Function G4}{2}{subsection.2.4}}
\@writefile{toc}{\contentsline {subsection}{\numberline {2.5}G5 Function}{3}{subsection.2.5}}
\@writefile{toc}{\contentsline {subsection}{\numberline {2.6}G6 Function}{3}{subsection.2.6}}
\@writefile{toc}{\contentsline {subsection}{\numberline {2.7}G7 Function}{3}{subsection.2.7}}
\@writefile{toc}{\contentsline {subsection}{\numberline {2.8}G8 Function}{3}{subsection.2.8}}
\@writefile{toc}{\contentsline {subsection}{\numberline {2.9}G9 Function}{3}{subsection.2.9}}
\citation{HuiLiuGsFsPSO}
\citation{Hue8}
\citation{KrolingG1G7G9G10PSO}
\citation{Hue5}
\citation{Hue23}
\citation{Hue4}
\citation{Hue10}
\citation{KrolingG1G7G9G10PSO}
\@writefile{toc}{\contentsline {subsection}{\numberline {2.10}G10 Function}{4}{subsection.2.10}}
\@writefile{toc}{\contentsline {subsection}{\numberline {2.11}G11 Function}{4}{subsection.2.11}}
\@writefile{toc}{\contentsline {subsection}{\numberline {2.12}G12 Function}{4}{subsection.2.12}}
\@writefile{lof}{\contentsline {figure}{\numberline {1}{\ignorespaces G11 function curve.}}{4}{figure.1}}
\newlabel{fig:GraphG11}{{1}{4}{G11 function curve}{figure.1}{}}
\@writefile{lof}{\contentsline {figure}{\numberline {2}{\ignorespaces G11 optimum curve.}}{4}{figure.2}}
\newlabel{fig:GoodG11}{{2}{4}{G11 optimum curve}{figure.2}{}}
\@writefile{lot}{\contentsline {table}{\numberline {1}{\ignorespaces Results of G functions and comparison.}}{5}{table.1}}
\newlabel{tab:G}{{1}{5}{Results of G functions and comparison}{table.1}{}}
\citation{AroraF1}
\citation{BelegunduF1}
\citation{GWO_paper}
\citation{Fs41}
\citation{Fs32}
\citation{HuiLiuGsFsPSO}
\citation{Fs40}
\citation{Fs30}
\citation{Fs38}
\citation{WCA}
\citation{WCA}
\citation{CoelhoF1F3QuantumSwarm}
\citation{Fs36}
\citation{GWO_paper}
\citation{TapabrataF1F2Social}
\citation{CoelhoF1F3QuantumSwarm}
\citation{Fs27}
\citation{KrolingG1G7G9G10PSO}
\citation{CoelloFsSelfAdaptive2}
\citation{Fs44}
\citation{CoelloFsSelfAdaptive1}
\citation{Fs37}
\citation{Fish}
\citation{HuiLiuGsFsPSO}
\citation{CoelloFsSelfAdaptive1}
\citation{GWO_paper}
\citation{KannanF3}
\@writefile{toc}{\contentsline {section}{\numberline {3}Classical Engineering Problems}{6}{section.3}}
\@writefile{toc}{\contentsline {subsection}{\numberline {3.1}Tension/Compression Spring Design Problem}{6}{subsection.3.1}}
\@writefile{lot}{\contentsline {table}{\numberline {2}{\ignorespaces Variables of the Pressure Vessel Design Problem.}}{6}{table.2}}
\newlabel{tab:vars1}{{2}{6}{Variables of the Pressure Vessel Design Problem}{table.2}{}}
\@writefile{lof}{\contentsline {figure}{\numberline {3}{\ignorespaces Tension/Compression Spring Design Problem.}}{6}{figure.3}}
\newlabel{fig:f1}{{3}{6}{Tension/Compression Spring Design Problem}{figure.3}{}}
\@writefile{toc}{\contentsline {subsection}{\numberline {3.2}Welded Beam Design Problem}{6}{subsection.3.2}}
\@writefile{lof}{\contentsline {figure}{\numberline {4}{\ignorespaces Welded Beam Design Problem.}}{6}{figure.4}}
\newlabel{fig:f2}{{4}{6}{Welded Beam Design Problem}{figure.4}{}}
\citation{WCA}
\citation{Fs41}
\citation{HuiLiuGsFsPSO}
\citation{Fs38}
\citation{Fs37}
\citation{WCA}
\citation{WCA}
\citation{GWO_paper}
\citation{KrolingG1G7G9G10PSO}
\citation{CoelloFsSelfAdaptive2}
\citation{Fish}
\citation{Fs27}
\citation{CoelloFsSelfAdaptive1}
\citation{Fs53}
\citation{TapabrataF1F2Social}
\citation{WCA}
\citation{WCA}
\citation{Fs41}
\citation{GWO_paper}
\citation{Fs38}
\citation{CoelhoF1F3QuantumSwarm}
\citation{CoelhoF1F3QuantumSwarm}
\citation{Fs35}
\citation{CoelloFsSelfAdaptive2}
\citation{KrolingG1G7G9G10PSO}
\citation{Fish}
\citation{CoelloFsSelfAdaptive1}
\citation{HuiLiuGsFsPSO}
\citation{kaveh2012truss}
\@writefile{lot}{\contentsline {table}{\numberline {3}{\ignorespaces Results for Tension/Compression Spring Design.}}{7}{table.3}}
\newlabel{tab:Spring}{{3}{7}{Results for Tension/Compression Spring Design}{table.3}{}}
\@writefile{toc}{\contentsline {subsection}{\numberline {3.3}Pressure Vessel Design Problem}{7}{subsection.3.3}}
\@writefile{lot}{\contentsline {table}{\numberline {4}{\ignorespaces Variables of the Pressure Vessel Design Problem.}}{7}{table.4}}
\newlabel{tab:vars3}{{4}{7}{Variables of the Pressure Vessel Design Problem}{table.4}{}}
\@writefile{lof}{\contentsline {figure}{\numberline {5}{\ignorespaces Pressure Vessel Design Problem.}}{7}{figure.5}}
\newlabel{fig:f3}{{5}{7}{Pressure Vessel Design Problem}{figure.5}{}}
\@writefile{toc}{\contentsline {section}{\numberline {4}Algorithm Analysis}{7}{section.4}}
\@writefile{lot}{\contentsline {table}{\numberline {5}{\ignorespaces Results for Welded Beam Design.}}{8}{table.5}}
\newlabel{tab:Welded}{{5}{8}{Results for Welded Beam Design}{table.5}{}}
\@writefile{lot}{\contentsline {table}{\numberline {6}{\ignorespaces Results for Pressure Vessel Design.}}{8}{table.6}}
\newlabel{tab:Pressure}{{6}{8}{Results for Pressure Vessel Design}{table.6}{}}
\@writefile{lof}{\contentsline {figure}{\numberline {6}{\ignorespaces G8 Function graphics with SGA.}}{8}{figure.6}}
\newlabel{fig:SGA-G8}{{6}{8}{G8 Function graphics with SGA}{figure.6}{}}
\@writefile{lof}{\contentsline {figure}{\numberline {7}{\ignorespaces G8 Function graphics with GWO.}}{9}{figure.7}}
\newlabel{fig:GWO-G8}{{7}{9}{G8 Function graphics with GWO}{figure.7}{}}
\@writefile{lof}{\contentsline {figure}{\numberline {8}{\ignorespaces G11 Function graphics with SGA.}}{9}{figure.8}}
\newlabel{fig:SGA-G11}{{8}{9}{G11 Function graphics with SGA}{figure.8}{}}
\@writefile{lof}{\contentsline {figure}{\numberline {9}{\ignorespaces G11 Function graphics with GWO.}}{9}{figure.9}}
\newlabel{fig:GWO-G11}{{9}{9}{G11 Function graphics with GWO}{figure.9}{}}
\bibstyle{agsm}
\bibdata{ReferencesFile}
\bibcite{Hue8}{{1}{2006}{{Amirjanov}}{{}}}
\bibcite{AroraF1}{{2}{1989}{{Arora}}{{}}}
\bibcite{Hue23}{{3}{2006}{{Becerra \&\ Coello}}{{}}}
\bibcite{BelegunduF1}{{4}{1972}{{Belegundu}}{{}}}
\bibcite{Fs53}{{5}{2000{\em  a}}{{Coello}}{{}}}
\bibcite{CoelloFsSelfAdaptive2}{{6}{2000{\em  b}}{{Coello}}{{}}}
\bibcite{Fs37}{{7}{2004}{{Coello \&\ Becerra}}{{}}}
\bibcite{CoelloFsSelfAdaptive1}{{8}{2002}{{Coello \&\ Montes}}{{}}}
\bibcite{CoelhoF1F3QuantumSwarm}{{9}{2010}{{dos Santos~Coelho}}{{}}}
\bibcite{WCA}{{10}{2012}{{Eskandar et~al.}}{{Eskandar, Sadollah, Bahreininejad \&\ Hamdi}}}
\bibcite{glover2003handbook}{{11}{2003}{{Glover \&\ Kochenberger}}{{}}}
\bibcite{Fs38}{{12}{2007}{{He \&\ Wang}}{{}}}
\bibcite{Hue5}{{13}{2007}{{Huang \&\ Yen}}{{}}}
\bibcite{Fs35}{{14}{2007}{{Huang et~al.}}{{Huang, Wang \&\ He}}}
\bibcite{KannanF3}{{15}{1994}{{Kannan \&\ Kramer}}{{}}}
\bibcite{Fs36}{{16}{2007}{{Karaboga \&\ Basturk}}{{}}}
\bibcite{kaveh2012truss}{{17}{2012}{{Kaveh \&\ Zolghadr}}{{}}}
\bibcite{KrolingG1G7G9G10PSO}{{18}{2006}{{Krohling \&\ Coelho}}{{}}}
\bibcite{Fs27}{{19}{2002}{{Lampinen}}{{}}}
\bibcite{HuiLiuGsFsPSO}{{20}{2010}{{Liu et~al.}}{{Liu, Cai \&\ Wang}}}
\bibcite{Fish}{{21}{2013}{{Lobato \&\ SteffenJr.}}{{}}}
\@writefile{toc}{\contentsline {section}{\numberline {5}Conclusion}{10}{section.5}}
\bibcite{Hue10}{{22}{2005{\em  a}}{{Mezura-Montes \&\ Coello}}{{}}}
\bibcite{Fs44}{{23}{2005{\em  b}}{{Mezura-Montes \&\ Coello}}{{}}}
\bibcite{GWO_paper}{{24}{2014}{{Mirjalili et~al.}}{{Mirjalili, Mirjalili \&\ Lewis}}}
\bibcite{TapabrataF1F2Social}{{25}{2003}{{Ray \&\ Liew}}{{}}}
\bibcite{Hue4}{{26}{2006}{{Tessema \&\ Yen}}{{}}}
\bibcite{Fs40}{{27}{2010}{{Wang \&\ po~Li}}{{}}}
\bibcite{Fs32}{{28}{2009}{{Wang et~al.}}{{Wang, Cai, Zhou \&\ Fan}}}
\bibcite{Fs41}{{29}{2009}{{Zahara \&\ Kao}}{{}}}
\bibcite{Fs30}{{30}{2008}{{Zhang et~al.}}{{Zhang, Luo \&\ X.}}}
